4bitadd-sub/Full_add.vcd
$date
	Sun Feb 18 15:33:02 2018
$end
$version
	Icarus Verilog
$end
$timescale
	1s
$end
$scope module tb_full_adder $end
$var wire 1 ! carry $end
$var wire 4 " sum [3:0] $end
$var reg 4 # a [3:0] $end
$var reg 4 $ b [3:0] $end
$scope module uut $end
$var wire 4 % a [3:0] $end
$var wire 4 & b [3:0] $end
$var wire 1 ! carry $end
$var wire 3 ' s [2:0] $end
$var wire 4 ( sum [3:0] $end
$scope module u0 $end
$var wire 1 ) a $end
$var wire 1 * b $end
$var wire 1 + c $end
$var wire 1 , carry $end
$var wire 1 - sum $end
$upscope $end
$scope module u1 $end
$var wire 1 . a $end
$var wire 1 / b $end
$var wire 1 0 c $end
$var wire 1 1 carry $end
$var wire 1 2 sum $end
$upscope $end
$scope module u2 $end
$var wire 1 3 a $end
$var wire 1 4 b $end
$var wire 1 5 c $end
$var wire 1 6 carry $end
$var wire 1 7 sum $end
$upscope $end
$scope module u3 $end
$var wire 1 8 a $end
$var wire 1 9 b $end
$var wire 1 : c $end
$var wire 1 ! carry $end
$var wire 1 ; sum $end
$upscope $end
$upscope $end
$upscope $end
$enddefinitions $end
#0
$dumpvars
0;
0:
09
08
07
06
05
04
03
02
01
00
0/
0.
0-
0,
0+
0*
0)
b0 (
b0 '
b0 &
b0 %
b0 $
b0 #
b0 "
0!
$end
#5
1-
b1 "
b1 (
1*
b1 $
b1 &
#10
0-
12
b10 "
b10 (
0*
1/
b10 $
b10 &
#15
1-
b11 "
b11 (
1*
b11 $
b11 &
#20
0-
02
17
b100 "
b100 (
0*
0/
14
b100 $
b100 &
#25
1-
b101 "
b101 (
1*
b101 $
b101 &
#30
0-
12
b110 "
b110 (
0*
1/
b110 $
b110 &
#35
1-
b111 "
b111 (
1*
b111 $
b111 &
#40
02
07
b1 "
b1 (
0*
0/
04
1)
b0 $
b0 &
b1 #
b1 %
#45
12
10
1,
b1 '
0-
b10 "
b10 (
1*
b1 $
b1 &
#50
07
00
05
0,
01
b0 '
1-
12
b11 "
b11 (
0*
1/
b10 $
b10 &
#55
17
15
11
02
10
1,
b11 '
0-
b100 "
b100 (
1*
b11 $
b11 &
#60
0;
00
05
0:
0,
01
06
b0 '
1-
02
17
b101 "
b101 (
0*
0/
14
b100 $
b100 &
#65
12
10
1,
b1 '
0-
b110 "
b110 (
1*
b101 $
b101 &
#70
0;
0:
06
17
00
05
0,
01
b0 '
1-
12
b111 "
b111 (
0*
1/
b110 $
b110 &
#75
1;
1:
16
07
15
11
02
10
1,
b111 '
0-
b1000 "
b1000 (
1*
b111 $
b111 &
#80
05
01
0;
12
0:
00
06
0,
b0 '
07
b10 "
b10 (
0*
0/
04
0)
1.
b0 $
b0 &
b10 #
b10 %
#85
1-
b11 "
b11 (
1*
b1 $
b1 &
#90
17
15
11
b10 '
0-
02
b100 "
b100 (
0*
1/
b10 $
b10 &
#95
1-
b101 "
b101 (
1*
b11 $
b11 &
#100
0;
05
0:
01
06
b0 '
0-
12
17
b110 "
b110 (
0*
0/
14
b100 $
b100 &
#105
1-
b111 "
b111 (
1*
b101 $
b101 &
#110
1;
1:
16
07
15
11
b110 '
0-
02
b1000 "
b1000 (
0*
1/
b110 $
b110 &
#115
1-
b1001 "
b1001 (
1*
b111 $
b111 &
#120
0;
05
0:
01
06
b0 '
12
07
b11 "
b11 (
0*
0/
04
1)
b0 $
b0 &
b11 #
b11 %
#125
17
15
11
02
10
1,
b11 '
0-
b100 "
b100 (
1*
b1 $
b1 &
#130
00
0,
b10 '
1-
02
b101 "
b101 (
0*
1/
b10 $
b10 &
#135
12
10
1,
b11 '
0-
b110 "
b110 (
1*
b11 $
b11 &
#140
05
01
0;
00
0:
0,
06
b0 '
1-
12
17
b111 "
b111 (
0*
0/
14
b100 $
b100 &
#145
1;
1:
16
07
15
11
02
10
1,
b111 '
0-
b1000 "
b1000 (
1*
b101 $
b101 &
#150
00
0,
b110 '
1-
02
b1001 "
b1001 (
0*
1/
b110 $
b110 &
#155
12
10
1,
b111 '
0-
b1010 "
b1010 (
1*
b111 $
b111 &
#160
0;
0:
06
02
17
b100 "
b100 (
00
05
0,
01
b0 '
0*
0/
04
0)
0.
13
b0 $
b0 &
b100 #
b100 %
#165
1-
b101 "
b101 (
1*
b1 $
b1 &
#170
0-
12
b110 "
b110 (
0*
1/
b10 $
b10 &
#175
1-
b111 "
b111 (
1*
b11 $
b11 &
#180
1;
1:
16
b100 '
0-
02
07
b1000 "
b1000 (
0*
0/
14
b100 $
b100 &
#185
1-
b1001 "
b1001 (
1*
b101 $
b101 &
#190
0-
12
b1010 "
b1010 (
0*
1/
b110 $
b110 &
#195
1-
b1011 "
b1011 (
1*
b111 $
b111 &
#200
0:
06
b0 '
0!
0-
02
17
1;
b1100 "
b1100 (
0*
0/
04
19
b1000 $
b1000 &
#205
1-
b1101 "
b1101 (
1*
b1001 $
b1001 &
#210
0;
b101 "
b101 (
0*
09
1)
b0 $
b0 &
b101 #
b101 %
#215
12
10
1,
b1 '
0-
b110 "
b110 (
1*
b1 $
b1 &
#220
0;
0:
06
17
00
05
0,
01
b0 '
1-
12
b111 "
b111 (
0*
1/
b10 $
b10 &
#225
1;
1:
16
07
15
11
02
10
1,
b111 '
0-
b1000 "
b1000 (
1*
b11 $
b11 &
#230
00
05
0,
01
b100 '
1-
02
07
b1001 "
b1001 (
0*
0/
14
b100 $
b100 &
#235
12
10
1,
b101 '
0-
b1010 "
b1010 (
1*
b101 $
b101 &
#240
07
00
05
0,
01
b100 '
1-
12
b1011 "
b1011 (
0*
1/
b110 $
b110 &
#245
17
15
11
02
10
1,
b111 '
0-
b1100 "
b1100 (
1*
b111 $
b111 &
#250
0:
06
00
05
0,
01
b0 '
0!
1-
02
17
1;
b1101 "
b1101 (
0*
0/
04
19
b1000 $
b1000 &
#255
12
10
1,
b1 '
0-
b1110 "
b1110 (
1*
b1001 $
b1001 &
#260
0:
06
00
17
0,
05
0;
12
b110 "
b110 (
01
b0 '
0*
09
0)
1.
b0 $
b0 &
b110 #
b110 %
#265
1-
b111 "
b111 (
1*
b1 $
b1 &
#270
1;
1:
16
07
15
11
b110 '
0-
02
b1000 "
b1000 (
0*
1/
b10 $
b10 &
#275
1-
b1001 "
b1001 (
1*
b11 $
b11 &
#280
05
01
b100 '
0-
12
07
b1010 "
b1010 (
0*
0/
14
b100 $
b100 &
#285
1-
b1011 "
b1011 (
1*
b101 $
b101 &
#290
17
15
11
b110 '
0-
02
b1100 "
b1100 (
0*
1/
b110 $
b110 &
#295
1-
b1101 "
b1101 (
1*
b111 $
b111 &
#300
0:
06
05
01
b0 '
0!
0-
12
17
1;
b1110 "
b1110 (
0*
0/
04
19
b1000 $
b1000 &
#305
1-
b1111 "
b1111 (
1*
b1001 $
b1001 &
#310
0;
b111 "
b111 (
0*
09
1)
b0 $
b0 &
b111 #
b111 %
#315
1;
1:
16
07
15
11
02
10
1,
b111 '
0-
b1000 "
b1000 (
1*
b1 $
b1 &
#320
00
0,
b110 '
1-
02
b1001 "
b1001 (
0*
1/
b10 $
b10 &
#325
12
10
1,
b111 '
0-
b1010 "
b1010 (
1*
b11 $
b11 &
#330
05
01
00
0,
b100 '
1-
12
07
b1011 "
b1011 (
0*
0/
14
b100 $
b100 &
#335
17
15
11
02
10
1,
b111 '
0-
b1100 "
b1100 (
1*
b101 $
b101 &
#340
00
0,
b110 '
1-
02
b1101 "
b1101 (
0*
1/
b110 $
b110 &
#345
12
10
1,
b111 '
0-
b1110 "
b1110 (
1*
b111 $
b111 &
#350
0:
06
05
01
00
0,
b0 '
0!
1-
12
17
1;
b1111 "
b1111 (
0*
0/
04
19
b1000 $
b1000 &
#355
1!
0;
1:
16
07
15
11
02
10
1,
b111 '
0-
b0 "
b0 (
1*
b1001 $
b1001 &
