add-sub/Full_sub.vcd
$date
	Sun Feb 18 15:38:30 2018
$end
$version
	Icarus Verilog
$end
$timescale
	1s
$end
$scope module tb_full_sub $end
$var wire 1 ! borrow $end
$var wire 4 " diff [3:0] $end
$var reg 4 # a [3:0] $end
$var reg 4 $ b [3:0] $end
$scope module uut $end
$var wire 4 % a [3:0] $end
$var wire 4 & b [3:0] $end
$var wire 1 ! borrow $end
$var wire 4 ' diff [3:0] $end
$var wire 3 ( s [2:0] $end
$scope module u0 $end
$var wire 1 ) a $end
$var wire 1 * b $end
$var wire 1 + borrow $end
$var wire 1 , c $end
$var wire 1 - diff $end
$upscope $end
$scope module u1 $end
$var wire 1 . a $end
$var wire 1 / b $end
$var wire 1 0 borrow $end
$var wire 1 1 c $end
$var wire 1 2 diff $end
$upscope $end
$scope module u2 $end
$var wire 1 3 a $end
$var wire 1 4 b $end
$var wire 1 5 borrow $end
$var wire 1 6 c $end
$var wire 1 7 diff $end
$upscope $end
$scope module u3 $end
$var wire 1 8 a $end
$var wire 1 9 b $end
$var wire 1 ! borrow $end
$var wire 1 : c $end
$var wire 1 ; diff $end
$upscope $end
$upscope $end
$upscope $end
$enddefinitions $end
#0
$dumpvars
0;
0:
09
08
07
06
05
04
03
02
01
00
0/
0.
0-
0,
0+
0*
0)
b0 (
b0 '
b0 &
b0 %
b0 $
b0 #
b0 "
0!
$end
#5
1!
1;
1:
15
17
16
10
12
11
1+
b111 (
1-
b1111 "
b1111 '
1*
b1 $
b1 &
#10
01
0+
b110 (
0-
12
b1110 "
b1110 '
0*
1/
b10 $
b10 &
#15
02
11
1+
b111 (
1-
b1101 "
b1101 '
1*
b11 $
b11 &
#20
06
00
01
0+
b100 (
0-
02
17
b1100 "
b1100 '
0*
0/
14
b100 $
b100 &
#25
07
16
10
12
11
1+
b111 (
1-
b1011 "
b1011 '
1*
b101 $
b101 &
#30
01
0+
b110 (
0-
12
b1010 "
b1010 '
0*
1/
b110 $
b110 &
#35
02
11
1+
b111 (
1-
b1001 "
b1001 '
1*
b111 $
b111 &
#40
0!
0;
0:
05
06
00
01
0+
b0 (
02
07
b1 "
b1 '
0*
0/
04
1)
b0 $
b0 &
b1 #
b1 %
#45
0-
b0 "
b0 '
1*
b1 $
b1 &
#50
1!
1;
1:
15
17
16
10
b110 (
1-
12
b1111 "
b1111 '
0*
1/
b10 $
b10 &
#55
0-
b1110 "
b1110 '
1*
b11 $
b11 &
#60
06
00
b100 (
1-
02
17
b1101 "
b1101 '
0*
0/
14
b100 $
b100 &
#65
0-
b1100 "
b1100 '
1*
b101 $
b101 &
#70
07
16
10
b110 (
1-
12
b1011 "
b1011 '
0*
1/
b110 $
b110 &
#75
0-
b1010 "
b1010 '
1*
b111 $
b111 &
#80
0!
0;
0:
05
06
00
b0 (
07
b10 "
b10 '
0*
0/
04
0)
1.
b0 $
b0 &
b10 #
b10 %
#85
02
11
1+
b1 (
1-
b1 "
b1 '
1*
b1 $
b1 &
#90
0!
0;
0:
05
07
01
06
0+
00
b0 (
0-
02
b0 "
b0 '
0*
1/
b10 $
b10 &
#95
1!
1;
1:
15
17
16
10
12
11
1+
b111 (
1-
b1111 "
b1111 '
1*
b11 $
b11 &
#100
01
06
0+
00
b100 (
0-
12
17
b1110 "
b1110 '
0*
0/
14
b100 $
b100 &
#105
02
11
1+
b101 (
1-
b1101 "
b1101 '
1*
b101 $
b101 &
#110
17
01
06
0+
00
b100 (
0-
02
b1100 "
b1100 '
0*
1/
b110 $
b110 &
#115
07
16
10
12
11
1+
b111 (
1-
b1011 "
b1011 '
1*
b111 $
b111 &
#120
0!
0;
0:
05
01
06
0+
00
b0 (
12
07
b11 "
b11 '
0*
0/
04
1)
b0 $
b0 &
b11 #
b11 %
#125
0-
b10 "
b10 '
1*
b1 $
b1 &
#130
1-
02
b1 "
b1 '
0*
1/
b10 $
b10 &
#135
0-
b0 "
b0 '
1*
b11 $
b11 &
#140
1!
1;
1:
15
b100 (
1-
12
17
b1111 "
b1111 '
0*
0/
14
b100 $
b100 &
#145
0-
b1110 "
b1110 '
1*
b101 $
b101 &
#150
1-
02
b1101 "
b1101 '
0*
1/
b110 $
b110 &
#155
0-
b1100 "
b1100 '
1*
b111 $
b111 &
#160
0!
0;
b100 "
b100 '
0:
05
b0 (
0*
0/
04
0)
0.
13
b0 $
b0 &
b100 #
b100 %
#165
07
16
10
12
11
1+
b11 (
1-
b11 "
b11 '
1*
b1 $
b1 &
#170
01
0+
b10 (
0-
12
b10 "
b10 '
0*
1/
b10 $
b10 &
#175
02
11
1+
b11 (
1-
b1 "
b1 '
1*
b11 $
b11 &
#180
06
00
0!
0;
01
0:
0+
05
b0 (
0-
02
07
b0 "
b0 '
0*
0/
14
b100 $
b100 &
#185
1!
1;
1:
15
17
16
10
12
11
1+
b111 (
1-
b1111 "
b1111 '
1*
b101 $
b101 &
#190
01
0+
b110 (
0-
12
b1110 "
b1110 '
0*
1/
b110 $
b110 &
#195
02
11
1+
b111 (
1-
b1101 "
b1101 '
1*
b111 $
b111 &
#200
06
00
01
0:
0+
05
b0 (
0-
02
17
1;
b1100 "
b1100 '
0*
0/
04
19
b1000 $
b1000 &
#205
07
16
10
12
11
1+
b11 (
1-
b1011 "
b1011 '
1*
b1001 $
b1001 &
#210
17
06
00
02
01
0+
b0 (
0!
0;
b101 "
b101 '
0*
09
1)
b0 $
b0 &
b101 #
b101 %
#215
0-
b100 "
b100 '
1*
b1 $
b1 &
#220
07
16
10
b10 (
1-
12
b11 "
b11 '
0*
1/
b10 $
b10 &
#225
0-
b10 "
b10 '
1*
b11 $
b11 &
#230
0!
0;
06
0:
00
05
b0 (
1-
02
07
b1 "
b1 '
0*
0/
14
b100 $
b100 &
#235
0-
b0 "
b0 '
1*
b101 $
b101 &
#240
1!
1;
1:
15
17
16
10
b110 (
1-
12
b1111 "
b1111 '
0*
1/
b110 $
b110 &
#245
0-
b1110 "
b1110 '
1*
b111 $
b111 &
#250
06
0:
00
05
b0 (
1-
02
17
1;
b1101 "
b1101 '
0*
0/
04
19
b1000 $
b1000 &
#255
0-
b1100 "
b1100 '
1*
b1001 $
b1001 &
#260
0!
0;
12
b110 "
b110 '
0*
09
0)
1.
b0 $
b0 &
b110 #
b110 %
#265
02
11
1+
b1 (
1-
b101 "
b101 '
1*
b1 $
b1 &
#270
17
01
06
0+
00
b0 (
0-
02
b100 "
b100 '
0*
1/
b10 $
b10 &
#275
07
16
10
12
11
1+
b11 (
1-
b11 "
b11 '
1*
b11 $
b11 &
#280
0!
0;
01
06
0:
0+
00
05
b0 (
0-
12
07
b10 "
b10 '
0*
0/
14
b100 $
b100 &
#285
02
11
1+
b1 (
1-
b1 "
b1 '
1*
b101 $
b101 &
#290
0!
0;
0:
05
07
01
06
0+
00
b0 (
0-
02
b0 "
b0 '
0*
1/
b110 $
b110 &
#295
1!
1;
1:
15
17
16
10
12
11
1+
b111 (
1-
b1111 "
b1111 '
1*
b111 $
b111 &
#300
01
06
0:
0+
00
05
b0 (
0-
12
17
1;
b1110 "
b1110 '
0*
0/
04
19
b1000 $
b1000 &
#305
02
11
1+
b1 (
1-
b1101 "
b1101 '
1*
b1001 $
b1001 &
#310
12
01
0+
b0 (
0!
0;
b111 "
b111 '
0*
09
1)
b0 $
b0 &
b111 #
b111 %
#315
0-
b110 "
b110 '
1*
b1 $
b1 &
#320
1-
02
b101 "
b101 '
0*
1/
b10 $
b10 &
#325
0-
b100 "
b100 '
1*
b11 $
b11 &
#330
1-
12
07
b11 "
b11 '
0*
0/
14
b100 $
b100 &
#335
0-
b10 "
b10 '
1*
b101 $
b101 &
#340
1-
02
b1 "
b1 '
0*
1/
b110 $
b110 &
#345
0-
b0 "
b0 '
1*
b111 $
b111 &
#350
1!
1-
12
17
1;
b1111 "
b1111 '
0*
0/
04
19
b1000 $
b1000 &
#355
0-
b1110 "
b1110 '
1*
b1001 $
b1001 &
